type,name,pseydoname,preprocessed_name,preprocessed_pseydoname,method,confidence,name,pseydoname,preprocessed_name,preprocessed_pseydoname
attribute,DocumentType,DocumentType,document type,document type,Semantic Similarity,1,issueDate,issueDate,date issue,date issue
attribute,Quantity,Quantity,quantity,quantity,As Is,100,quantity,quantity,quantity,quantity
attribute,QuantitySpecified,QuantitySpecified,quantity,quantity,As Is,100,quantity,quantity,quantity,quantity
attribute,UnitPrice,UnitPrice,price unit,price unit,As Is,100,unitPrice,unitPrice,price unit,price unit
attribute,UnitPriceSpecified,UnitPriceSpecified,price unit,price unit,As Is,100,unitPrice,unitPrice,price unit,price unit
attribute,ShortDescription,ShortDescription,description,description,As Is,100,description,description,description,description
attribute,LongDescription,LongDescription,description,description,As Is,100,description,description,description,description
attribute,Name,Name,name,name,As Is,100,name,name,name,name
attribute,City,City,city,city,As Is,100,city,city,city,city
attribute,Zip,Zip,zip,zip,As Is,100,zip,zip,zip,zip
attribute,Country,Country,country,country,As Is,100,country,country,country,country
attribute,TransmitDate,TransmitDate,transmit date,transmit date,Synonyms,50,issueDate,issueDate,date issue,date issue
attribute,SupplierNum,SupplierNum,supplier number,supplier number,Synonyms,50,number,number,number,number
attribute,InvoiceNum,InvoiceNum,number invoice,number invoice,Synonyms,50,number,number,number,number
attribute,PONum,PONum,number,number,Synonyms,100,number,number,number,number
attribute,InvoiceDate,InvoiceDate,date invoice,date invoice,Synonyms,50,issueDate,issueDate,date issue,date issue
attribute,DiscountDueDate,DiscountDueDate,date discount,date discount,Synonyms,50,issueDate,issueDate,date issue,date issue
attribute,DiscountDueDate,DiscountDueDate,date discount,date discount,Synonyms,50,issueDate,issueDate,date issue,date issue
attribute,DiscountDueDate,DiscountDueDate,date discount,date discount,Synonyms,50,issueDate,issueDate,date issue,date issue
class,InvoiceLineItems,InvoiceLineItems,item line invoice,item line invoice,As Is,66.67,invoiceLine,invoiceLine,line invoice,line invoice
class,ShipToType,ShipTo,type,ship,Semantic Similarity,0.78,client,client,client,client
