type,name,pseydoname,preprocessed_name,preprocessed_pseydoname,method,confidence,name,pseydoname,preprocessed_name,preprocessed_pseydoname
attribute,line,line,line,line,As Is,100.0,Lines,Lines,line,line
attribute,name,name,name,name,As Is,100.0,Name,Name,name,name
attribute,zone,zone,zone,zone,As Is,100.0,Zone,Zone,zone,zone
attribute,connections,connections,connection,connection,As Is,100.0,Connections,Connections,connection,connection
attribute,lat,lat,latitude,latitude,As Is,100.0,Latitude,Latitude,latitude,latitude
attribute,lon,lon,longitude,longitude,As Is,100.0,Longitude,Longitude,longitude,longitude
attribute,name,name,name,name,As Is,100.0,Name,Name,name,name
attribute,accessibility,accessibility,accessibility,accessibility,As Is,100.0,Accessibility,Accessibility,accessibility,accessibility
class,metro,metro,metro,metro,As Is,100.0,MetroStation,MetroStation,station metro,station metro
class,metro,metro,metro,metro,As Is,100.0,Metro,Metro,metro,metro
