type,name,pseydoname,preprocessed_name,preprocessed_pseydoname,method,confidence,name,pseydoname,preprocessed_name,preprocessed_pseydoname
attribute,name,name,name,name,As Is,100.0,Name,Name,name,name
attribute,score,score,score,score,Semantic Similarity,0.0,Latitude,Latitude,latitude,latitude
attribute,distance,distance,distance,distance,Semantic Similarity,0.0,Longitude,Longitude,longitude,longitude
attribute,name,name,name,name,As Is,100.0,Name,Name,name,name
attribute,category,category,category,category,Semantic Similarity,0.0,Zone,Zone,zone,zone
attribute,categoryCode,categoryCode,category code,category code,Semantic Similarity,0.0,Lines,Lines,line,line
attribute,number,number,number,number,Semantic Similarity,0.0,Connections,Connections,connection,connection
attribute,operator,operator,operator,operator,Semantic Similarity,0.0,Latitude,Latitude,latitude,latitude
attribute,capacity1st,capacity1st,capacity,capacity,Semantic Similarity,0.0,Longitude,Longitude,longitude,longitude
class,station,station,station,station,As Is,100.0,MetroStation,MetroStation,station metro,station metro
class,station,station,station,station,As Is,100.0,BusStation,BusStation,bus station,bus station
class,station,station,station,station,As Is,100.0,MetroStation,MetroStation,station metro,station metro
class,station,station,station,station,As Is,100.0,BusStation,BusStation,bus station,bus station
class,stationboard,stationboard,station board,station board,As Is,50.0,MetroStation,MetroStation,station metro,station metro
class,stationboard,stationboard,station board,station board,As Is,50.0,BusStation,BusStation,bus station,bus station
class,stationboard,stationboard,station board,station board,As Is,50.0,MetroStation,MetroStation,station metro,station metro
class,stationboard,stationboard,station board,station board,As Is,50.0,BusStation,BusStation,bus station,bus station
class,stationboard,stationboard,station board,station board,As Is,50.0,MetroStation,MetroStation,station metro,station metro
class,stationboard,stationboard,station board,station board,As Is,50.0,BusStation,BusStation,bus station,bus station
class,stationboard,stationboard,station board,station board,As Is,50.0,MetroStation,MetroStation,station metro,station metro
class,stationboard,stationboard,station board,station board,As Is,50.0,BusStation,BusStation,bus station,bus station
